﻿model;num firms;macro auc all;mean place;mean distance;macro auc diff;macro auc old;;comment
WNTM 12m old;23227;0,854;2,72;0,014;0,938;0,839;;
WNTM 12m old;23227;0,84;1,60;0,01;0,931;0,818;;73 line
WNTM 12m old;23227;0,86;2,20;0,006;0,926;0,832;;73 line 100/5
WNTM 12m old;23227;0,798;30,83;0,038;0,86;0,771;;73 line wntm_text
WNTM 12m old;23227;0,671;27,48;0,012;0,731;0,649;;73 line wntm_agent_seller
WNTM 12m old;23227;0,823;1,18;0,011;0,905;0,791;;73 line 700/5
WNTM 12m old;23227;0,811;1,82;0,008;0,902;0,803;;75 line 
WNTM 12m old;23227;0,842;1,56;0,008;0,933;0,813;;73 line 200/5
WNTM 12m old;23368;0,842;1,56;0,008;0,933;0,813;;73 line  200/5 20iter
WNTM 6m new;12366;0,84;1,09;0,008;0,904;0,833;;73 line  400/5 ptdwreg
WNTM 6m new;12366;0,876;1,46;0,006;0,945;0,88;;73 line  100/5 decorrwreg
WNTM 6m new;12366;0,876;1,64;0,005;0,916;0,878;;73 line  100/5 thetasmoothreg
WNTM 6m new;12366;0,854;3,51;0,008;0,90;0,871;;bestweights  100/5 thetasmoothreg
WNTM 6m new;12366;0,768;61,98;0,088;0,82;0,782;;wntm_text_buyer  100/5 thetasmoothreg
WNTM 6m new;12366;0,57;360,43;0,026;0,56;0,582;;wntm_segment_buyer  100/5 thetasmoothreg
WNTM 6m new;12366;0,566;132,31;0,022;0,56;0,565;;wntm_segment_buyer, wntm_region_seller  100/5 thetasmoothreg
WNTM 6m new;12366;0,84;1,09;0,008;0,904;0,833;;73 400/5 -reg
WNTM 6m new;12366;0,877;1,46;0,006;0,945;0,88;;73 100/5 -reg
WNTM 6m new;12366;0,869;1,42;0,005;0,94;0,866;;73 100/5 +reg
WNTM 6m new;12366;0,849;2,01;0,013;0,908;0,837;;bestweights 600/5 +reg
WNTM 6m new;12366;0,854;3,50;0,008;0,902;0,871;;bestweights 100/5 +reg
WNTM 6m new;12366;0,592;45,26;0,032;0,549;0,625;;agent_buyer 100/5 -reg
WNTM 6m new;12366;0,741;5,43;0,013;0,784;0,76;;wntm_okved_seller,text_seller 400/5 -reg
WNTM 6m new;12366;0,748;3,86;0,034;0,747;0,764;;wntm_text_seller, text_seller 400/5 -reg
WNTM 6m new;12366;0,801;1,38;0,031;0,839;0,812;;wntm_text 400/5 -reg
WNTM 6m new;12366;0,831;1,36;0,027;0,82;0,881;;wntm_okved0_seller, wntm_text 400/5 -reg
WNTM 6m new;12366;0,77;1,23;0,008;0,806;0,764;;half random half modalities 400/5 -reg
