\relax 
\providecommand\hyper@newdestlabel[2]{}
\providecommand{\transparent@use}[1]{}
\@writefile{toc}{\contentsline {chapter}{\numberline {3}\IeC {\CYRP }\IeC {\cyro }\IeC {\cyrs }\IeC {\cyrt }\IeC {\cyra }\IeC {\cyrn }\IeC {\cyro }\IeC {\cyrv }\IeC {\cyrk }\IeC {\cyra } \IeC {\cyrz }\IeC {\cyra }\IeC {\cyrd }\IeC {\cyra }\IeC {\cyrch }\IeC {\cyri }}{8}{chapter.3}\protected@file@percent }
\@writefile{lof}{\addvspace {10\p@ }}
\@writefile{lot}{\addvspace {10\p@ }}
\@writefile{lol}{\addvspace {10\p@ }}
\newlabel{ch:problem}{{3}{8}{Постановка задачи}{chapter.3}{}}
\@writefile{toc}{\contentsline {section}{\numberline {3.1}\IeC {\CYRD }\IeC {\cyra }\IeC {\cyrn }\IeC {\cyrn }\IeC {\cyrery }\IeC {\cyre }}{8}{section.3.1}\protected@file@percent }
\@writefile{toc}{\contentsline {subsection}{\numberline {3.1.1}\IeC {\CYRI }\IeC {\cyrn }\IeC {\cyrf }\IeC {\cyro }\IeC {\cyrr }\IeC {\cyrm }\IeC {\cyra }\IeC {\cyrc }\IeC {\cyri }\IeC {\cyrya } \IeC {\cyro } \IeC {\cyrk }\IeC {\cyro }\IeC {\cyrm }\IeC {\cyrp }\IeC {\cyra }\IeC {\cyrn }\IeC {\cyri }\IeC {\cyri }.}{8}{subsection.3.1.1}\protected@file@percent }
\@writefile{lot}{\contentsline {table}{\numberline {3.1}{\ignorespaces \IeC {\CYRF }\IeC {\cyri }\IeC {\cyrr }\IeC {\cyrm }\IeC {\cyra }.\relax }}{8}{table.caption.32}\protected@file@percent }
\providecommand*\caption@xref[2]{\@setref\relax\@undefined{#1}}
\newlabel{tab:firm}{{3.1}{8}{Фирма.\relax }{table.caption.32}{}}
\@writefile{toc}{\contentsline {subsection}{\numberline {3.1.2}\IeC {\CYRT }\IeC {\cyrr }\IeC {\cyra }\IeC {\cyrn }\IeC {\cyrz }\IeC {\cyra }\IeC {\cyrk }\IeC {\cyrc }\IeC {\cyri }\IeC {\cyri }}{9}{subsection.3.1.2}\protected@file@percent }
\@writefile{lot}{\contentsline {table}{\numberline {3.2}{\ignorespaces \relax }}{9}{table.caption.36}\protected@file@percent }
\newlabel{tab:trans}{{3.2}{9}{\relax }{table.caption.36}{}}
\@writefile{toc}{\contentsline {section}{\numberline {3.2}\IeC {\CYRM }\IeC {\cyro }\IeC {\cyrd }\IeC {\cyre }\IeC {\cyrl }\IeC {\cyrsftsn }}{10}{section.3.2}\protected@file@percent }
\@writefile{toc}{\contentsline {subsection}{\numberline {3.2.1}\IeC {\CYRM }\IeC {\cyru }\IeC {\cyrl }\IeC {\cyrsftsn }\IeC {\cyrt }\IeC {\cyri }\IeC {\cyrm }\IeC {\cyro }\IeC {\cyrd }\IeC {\cyra }\IeC {\cyrl }\IeC {\cyrsftsn }\IeC {\cyrn }\IeC {\cyra }\IeC {\cyrya } TM}{11}{subsection.3.2.1}\protected@file@percent }
\newlabel{sub:tm}{{3.2.1}{11}{Мультимодальная TM}{subsection.3.2.1}{}}
\@writefile{lot}{\contentsline {table}{\numberline {3.3}{\ignorespaces \IeC {\CYRM }\IeC {\cyro }\IeC {\cyrd }\IeC {\cyra }\IeC {\cyrl }\IeC {\cyrsftsn }\IeC {\cyrn }\IeC {\cyro }\IeC {\cyrs }\IeC {\cyrt }\IeC {\cyri } \IeC {\cyrt }\IeC {\cyre }\IeC {\cyrm }\IeC {\cyra }\IeC {\cyrt }\IeC {\cyri }\IeC {\cyrch }\IeC {\cyre }\IeC {\cyrs }\IeC {\cyrk }\IeC {\cyro }\IeC {\cyrishrt } \IeC {\cyrm }\IeC {\cyro }\IeC {\cyrd }\IeC {\cyre }\IeC {\cyrl }\IeC {\cyri }.\relax }}{11}{table.caption.40}\protected@file@percent }
\newlabel{tab:tm_mods}{{3.3}{11}{Модальности тематической модели.\relax }{table.caption.40}{}}
\@writefile{toc}{\contentsline {subsection}{\numberline {3.2.2}WNTM \IeC {\cyrm }\IeC {\cyro }\IeC {\cyrd }\IeC {\cyre }\IeC {\cyrl }\IeC {\cyrsftsn }}{12}{subsection.3.2.2}\protected@file@percent }
\newlabel{sub:wntm}{{3.2.2}{12}{WNTM модель}{subsection.3.2.2}{}}
\@writefile{lof}{\contentsline {figure}{\numberline {3.1}{\ignorespaces \IeC {\CYRP }\IeC {\cyrr }\IeC {\cyro }\IeC {\cyrc }\IeC {\cyre }\IeC {\cyrs }\IeC {\cyrs } \IeC {\cyrp }\IeC {\cyro }\IeC {\cyrl }\IeC {\cyru }\IeC {\cyrch }\IeC {\cyre }\IeC {\cyrn }\IeC {\cyri }\IeC {\cyrya } wntm-\IeC {\cyrm }\IeC {\cyro }\IeC {\cyrd }\IeC {\cyra }\IeC {\cyrl }\IeC {\cyrsftsn }\IeC {\cyrn }\IeC {\cyro }\IeC {\cyrs }\IeC {\cyrt }\IeC {\cyre }\IeC {\cyrishrt }.\relax }}{12}{figure.caption.42}\protected@file@percent }
\newlabel{fig:wntm}{{3.1}{12}{Процесс получения wntm-модальностей.\relax }{figure.caption.42}{}}
\@writefile{lot}{\contentsline {table}{\numberline {3.4}{\ignorespaces \IeC {\CYRM }\IeC {\cyro }\IeC {\cyrd }\IeC {\cyra }\IeC {\cyrl }\IeC {\cyrsftsn }\IeC {\cyrn }\IeC {\cyro }\IeC {\cyrs }\IeC {\cyrt }\IeC {\cyri } wntm \IeC {\cyrm }\IeC {\cyro }\IeC {\cyrd }\IeC {\cyre }\IeC {\cyrl }\IeC {\cyri }.\relax }}{13}{table.caption.43}\protected@file@percent }
\newlabel{tab:wntm_mods}{{3.4}{13}{Модальности wntm модели.\relax }{table.caption.43}{}}
\@writefile{toc}{\contentsline {section}{\numberline {3.3}\IeC {\CYRR }\IeC {\cyra }\IeC {\cyrz }\IeC {\cyrm }\IeC {\cyre }\IeC {\cyrt }\IeC {\cyrk }\IeC {\cyra } \IeC {\cyri } \IeC {\cyrm }\IeC {\cyre }\IeC {\cyrt }\IeC {\cyrr }\IeC {\cyri }\IeC {\cyrk }\IeC {\cyri }}{14}{section.3.3}\protected@file@percent }
\@writefile{toc}{\contentsline {subsection}{\numberline {3.3.1}\IeC {\CYRR }\IeC {\cyra }\IeC {\cyrz }\IeC {\cyrm }\IeC {\cyre }\IeC {\cyrt }\IeC {\cyrk }\IeC {\cyra }}{14}{subsection.3.3.1}\protected@file@percent }
\newlabel{sub:markup}{{3.3.1}{14}{Разметка}{subsection.3.3.1}{}}
\newlabel{fig:hist_marks}{{3.2a}{15}{Распределение компаний в коллекции по видам деятельности. Основано на ОКВЭДах, которые указала компания.\relax }{figure.caption.49}{}}
\newlabel{sub@fig:hist_marks}{{a}{15}{Распределение компаний в коллекции по видам деятельности. Основано на ОКВЭДах, которые указала компания.\relax }{figure.caption.49}{}}
\newlabel{fig:marks}{{3.2b}{15}{Распределение пар по типам меток во всей разметке.\relax }{figure.caption.49}{}}
\newlabel{sub@fig:marks}{{b}{15}{Распределение пар по типам меток во всей разметке.\relax }{figure.caption.49}{}}
\@writefile{lof}{\contentsline {figure}{\numberline {3.2}{\ignorespaces \relax }}{15}{figure.caption.49}\protected@file@percent }
\@writefile{toc}{\contentsline {subsection}{\numberline {3.3.2}\IeC {\CYRM }\IeC {\cyre }\IeC {\cyrt }\IeC {\cyrr }\IeC {\cyri }\IeC {\cyrk }\IeC {\cyri }}{15}{subsection.3.3.2}\protected@file@percent }
\newlabel{sub:metrics}{{3.3.2}{15}{Метрики}{subsection.3.3.2}{}}
\@writefile{toc}{\contentsline {subsubsection}{\nonumberline ROC-AUC \IeC {\cyrn }\IeC {\cyra } \IeC {\cyro }\IeC {\cyrs }\IeC {\cyrn }\IeC {\cyro }\IeC {\cyrv }\IeC {\cyre } \IeC {\cyrr }\IeC {\cyra }\IeC {\cyrz }\IeC {\cyrm }\IeC {\cyre }\IeC {\cyrt }\IeC {\cyrk }\IeC {\cyri }}{15}{section*.53}\protected@file@percent }
\@writefile{toc}{\contentsline {subsubsection}{\nonumberline \IeC {\CYRM }\IeC {\cyre }\IeC {\cyrt }\IeC {\cyrr }\IeC {\cyri }\IeC {\cyrk }\IeC {\cyri } \IeC {\cyrr }\IeC {\cyra }\IeC {\cyrn }\IeC {\cyrzh }\IeC {\cyri }\IeC {\cyrr }\IeC {\cyro }\IeC {\cyrv }\IeC {\cyra }\IeC {\cyrn }\IeC {\cyri }\IeC {\cyrya } \IeC {\cyrs }\IeC {\cyrp }\IeC {\cyri }\IeC {\cyrs }\IeC {\cyrk }\IeC {\cyro }\IeC {\cyrv } \IeC {\cyrn }\IeC {\cyra } \IeC {\cyro }\IeC {\cyrs }\IeC {\cyrn }\IeC {\cyro }\IeC {\cyrv }\IeC {\cyre } \IeC {\cyrr }\IeC {\cyra }\IeC {\cyrz }\IeC {\cyrm }\IeC {\cyre }\IeC {\cyrt }\IeC {\cyrk }\IeC {\cyri }}{16}{section*.55}\protected@file@percent }
\@writefile{toc}{\contentsline {subsubsection}{\nonumberline \IeC {\CYRI }\IeC {\cyre }\IeC {\cyrr }\IeC {\cyra }\IeC {\cyrr }\IeC {\cyrh }\IeC {\cyri }\IeC {\cyrya }}{16}{section*.60}\protected@file@percent }
\@writefile{toc}{\contentsline {subsubsection}{\nonumberline \IeC {\CYRU }\IeC {\cyrs }\IeC {\cyrt }\IeC {\cyro }\IeC {\cyrishrt }\IeC {\cyrch }\IeC {\cyri }\IeC {\cyrv }\IeC {\cyro }\IeC {\cyrs }\IeC {\cyrt }\IeC {\cyrsftsn }}{17}{section*.64}\protected@file@percent }
\@setckpt{Chapters/02_Problem}{
\setcounter{page}{18}
\setcounter{equation}{0}
\setcounter{enumi}{2}
\setcounter{enumii}{0}
\setcounter{enumiii}{0}
\setcounter{enumiv}{0}
\setcounter{footnote}{0}
\setcounter{mpfootnote}{0}
\setcounter{part}{0}
\setcounter{chapter}{3}
\setcounter{section}{3}
\setcounter{subsection}{2}
\setcounter{subsubsection}{0}
\setcounter{paragraph}{0}
\setcounter{subparagraph}{0}
\setcounter{figure}{2}
\setcounter{table}{4}
\setcounter{Item}{4}
\setcounter{Hfootnote}{0}
\setcounter{bookmark@seq@number}{0}
\setcounter{caption@flags}{0}
\setcounter{ContinuedFloat}{0}
\setcounter{subfigure}{2}
\setcounter{subtable}{0}
\setcounter{NAT@ctr}{0}
\setcounter{parentequation}{0}
\setcounter{float@type}{8}
\setcounter{FancyVerbLine}{0}
\setcounter{LT@tables}{0}
\setcounter{LT@chunks}{0}
\setcounter{lstnumber}{1}
\setcounter{section@level}{4}
\setcounter{lstlisting}{0}
}
