\relax 
\providecommand\hyper@newdestlabel[2]{}
\providecommand{\transparent@use}[1]{}
\@writefile{toc}{\contentsline {chapter}{\numberline {4}\IeC {\CYREREV }\IeC {\cyrk }\IeC {\cyrs }\IeC {\cyrp }\IeC {\cyre }\IeC {\cyrr }\IeC {\cyri }\IeC {\cyrm }\IeC {\cyre }\IeC {\cyrn }\IeC {\cyrt }\IeC {\cyrery }}{18}{chapter.4}\protected@file@percent }
\@writefile{lof}{\addvspace {10\p@ }}
\@writefile{lot}{\addvspace {10\p@ }}
\@writefile{lol}{\addvspace {10\p@ }}
\newlabel{ch:experiments}{{4}{18}{Эксперименты}{chapter.4}{}}
\@writefile{toc}{\contentsline {section}{\numberline {4.1}\IeC {\CYRV }\IeC {\cyrery }\IeC {\cyrd }\IeC {\cyre }\IeC {\cyrl }\IeC {\cyre }\IeC {\cyrn }\IeC {\cyri }\IeC {\cyre } \IeC {\cyrt }\IeC {\cyro }\IeC {\cyrv }\IeC {\cyra }\IeC {\cyrr }\IeC {\cyrn }\IeC {\cyrery }\IeC {\cyrh } \IeC {\cyrs }\IeC {\cyrl }\IeC {\cyro }\IeC {\cyrv } \IeC {\cyri }\IeC {\cyrz } \IeC {\cyrt }\IeC {\cyre }\IeC {\cyrk }\IeC {\cyrs }\IeC {\cyrt }\IeC {\cyro }\IeC {\cyrv } \IeC {\cyrp }\IeC {\cyrl }\IeC {\cyra }\IeC {\cyrt }\IeC {\cyre }\IeC {\cyrzh }\IeC {\cyrn }\IeC {\cyrery }\IeC {\cyrh } \IeC {\cyrp }\IeC {\cyro }\IeC {\cyrr }\IeC {\cyru }\IeC {\cyrch }\IeC {\cyre }\IeC {\cyrn }\IeC {\cyri }\IeC {\cyrishrt }}{18}{section.4.1}\protected@file@percent }
\@writefile{toc}{\contentsline {subsection}{\numberline {4.1.1}\IeC {\CYRR }\IeC {\cyru }\IeC {\cyrch }\IeC {\cyrn }\IeC {\cyra }\IeC {\cyrya } \IeC {\cyrr }\IeC {\cyra }\IeC {\cyrz }\IeC {\cyrm }\IeC {\cyre }\IeC {\cyrt }\IeC {\cyrk }\IeC {\cyra } \IeC {\cyrt }\IeC {\cyro }\IeC {\cyrv }\IeC {\cyra }\IeC {\cyrr }\IeC {\cyrn }\IeC {\cyrery }\IeC {\cyrh } \IeC {\cyrs }\IeC {\cyrl }\IeC {\cyro }\IeC {\cyrv }}{18}{subsection.4.1.1}\protected@file@percent }
\@writefile{toc}{\contentsline {subsection}{\numberline {4.1.2}\IeC {\CYRM }\IeC {\cyro }\IeC {\cyrd }\IeC {\cyre }\IeC {\cyrl }\IeC {\cyri } \IeC {\cyrv }\IeC {\cyrery }\IeC {\cyrd }\IeC {\cyre }\IeC {\cyrl }\IeC {\cyre }\IeC {\cyrn }\IeC {\cyri }\IeC {\cyrya } \IeC {\cyrs }\IeC {\cyrl }\IeC {\cyro }\IeC {\cyrv }\IeC {\cyra }\IeC {\cyrr }\IeC {\cyrya } \IeC {\cyrt }\IeC {\cyro }\IeC {\cyrv }\IeC {\cyra }\IeC {\cyrr }\IeC {\cyrn }\IeC {\cyrery }\IeC {\cyrh } \IeC {\cyrs }\IeC {\cyrl }\IeC {\cyro }\IeC {\cyrv }}{19}{subsection.4.1.2}\protected@file@percent }
\@writefile{toc}{\contentsline {subsubsection}{\nonumberline \IeC {\CYRA }\IeC {\cyrl }\IeC {\cyrg }\IeC {\cyro }\IeC {\cyrr }\IeC {\cyri }\IeC {\cyrt }\IeC {\cyrm }, \IeC {\cyro }\IeC {\cyrs }\IeC {\cyrn }\IeC {\cyro }\IeC {\cyrv }\IeC {\cyra }\IeC {\cyrn }\IeC {\cyrn }\IeC {\cyrery }\IeC {\cyrishrt } \IeC {\cyrn }\IeC {\cyra } word2vec}{19}{section*.71}\protected@file@percent }
\@writefile{toc}{\contentsline {subsubsection}{\nonumberline \IeC {\CYRK }\IeC {\cyro }\IeC {\cyrn }\IeC {\cyrt }\IeC {\cyre }\IeC {\cyrk }\IeC {\cyrs }\IeC {\cyrt }\IeC {\cyrn }\IeC {\cyrery }\IeC {\cyrishrt } \IeC {\cyra }\IeC {\cyrl }\IeC {\cyrg }\IeC {\cyro }\IeC {\cyrr }\IeC {\cyri }\IeC {\cyrt }\IeC {\cyrm }}{19}{section*.72}\protected@file@percent }
\newlabel{subsub:wordsregs}{{4.1.2}{19}{Контекстный алгоритм}{section*.72}{}}
\@writefile{toc}{\contentsline {subsubsection}{\nonumberline \IeC {\CYRM }\IeC {\cyre }\IeC {\cyrt }\IeC {\cyrr }\IeC {\cyri }\IeC {\cyrk }\IeC {\cyra } \IeC {\cyrk }\IeC {\cyra }\IeC {\cyrch }\IeC {\cyre }\IeC {\cyrs }\IeC {\cyrt }\IeC {\cyrv }\IeC {\cyra } \IeC {\cyrv }\IeC {\cyrery }\IeC {\cyrd }\IeC {\cyre }\IeC {\cyrl }\IeC {\cyre }\IeC {\cyrn }\IeC {\cyri }\IeC {\cyrya } \IeC {\cyrt }\IeC {\cyro }\IeC {\cyrv }\IeC {\cyra }\IeC {\cyrr }\IeC {\cyrn }\IeC {\cyrery }\IeC {\cyrh } \IeC {\cyrs }\IeC {\cyrl }\IeC {\cyro }\IeC {\cyrv }}{20}{section*.73}\protected@file@percent }
\@writefile{toc}{\contentsline {subsubsection}{\nonumberline \IeC {\CYRS }\IeC {\cyrr }\IeC {\cyra }\IeC {\cyrv }\IeC {\cyrn }\IeC {\cyre }\IeC {\cyrn }\IeC {\cyri }\IeC {\cyre } \IeC {\cyrk }\IeC {\cyra }\IeC {\cyrch }\IeC {\cyre }\IeC {\cyrs }\IeC {\cyrt }\IeC {\cyrv }\IeC {\cyra } \IeC {\cyrr }\IeC {\cyra }\IeC {\cyrz }\IeC {\cyrn }\IeC {\cyrery }\IeC {\cyrh } \IeC {\cyrm }\IeC {\cyro }\IeC {\cyrd }\IeC {\cyre }\IeC {\cyrl }\IeC {\cyre }\IeC {\cyrishrt } \IeC {\cyrv }\IeC {\cyrery }\IeC {\cyrd }\IeC {\cyre }\IeC {\cyrl }\IeC {\cyre }\IeC {\cyrn }\IeC {\cyri }\IeC {\cyrya } \IeC {\cyrt }\IeC {\cyro }\IeC {\cyrv }\IeC {\cyra }\IeC {\cyrr }\IeC {\cyrn }\IeC {\cyrery }\IeC {\cyrh } \IeC {\cyrs }\IeC {\cyrl }\IeC {\cyro }\IeC {\cyrv }}{20}{section*.75}\protected@file@percent }
\@writefile{lot}{\contentsline {table}{\numberline {4.1}{\ignorespaces \IeC {\CYRK }\IeC {\cyra }\IeC {\cyrch }\IeC {\cyre }\IeC {\cyrs }\IeC {\cyrt }\IeC {\cyrv }\IeC {\cyro } \IeC {\cyrm }\IeC {\cyro }\IeC {\cyrd }\IeC {\cyre }\IeC {\cyrl }\IeC {\cyre }\IeC {\cyrishrt } \IeC {\cyrv }\IeC {\cyrery }\IeC {\cyrd }\IeC {\cyre }\IeC {\cyrl }\IeC {\cyre }\IeC {\cyrn }\IeC {\cyri }\IeC {\cyrya } \IeC {\cyrt }\IeC {\cyro }\IeC {\cyrv }\IeC {\cyra }\IeC {\cyrr }\IeC {\cyrn }\IeC {\cyrery }\IeC {\cyrh } \IeC {\cyrs }\IeC {\cyrl }\IeC {\cyro }\IeC {\cyrv }.\relax }}{20}{table.caption.77}\protected@file@percent }
\newlabel{wrap-tab:wordmodels}{{4.1}{20}{Качество моделей выделения товарных слов.\relax }{table.caption.77}{}}
\@writefile{toc}{\contentsline {section}{\numberline {4.2}\IeC {\CYREREV }\IeC {\cyrk }\IeC {\cyrs }\IeC {\cyrp }\IeC {\cyre }\IeC {\cyrr }\IeC {\cyri }\IeC {\cyrm }\IeC {\cyre }\IeC {\cyrn }\IeC {\cyrt }\IeC {\cyrery } \IeC {\cyrs } \IeC {\cyrm }\IeC {\cyro }\IeC {\cyrd }\IeC {\cyre }\IeC {\cyrl }\IeC {\cyrya }\IeC {\cyrm }\IeC {\cyri }}{20}{section.4.2}\protected@file@percent }
\@writefile{lof}{\contentsline {figure}{\numberline {4.1}{\ignorespaces \relax }}{21}{figure.caption.79}\protected@file@percent }
\newlabel{wrap-fig:num_trans}{{4.1}{21}{\relax }{figure.caption.79}{}}
\@writefile{toc}{\contentsline {subsection}{\numberline {4.2.1}\IeC {\CYRP }\IeC {\cyro }\IeC {\cyrd }\IeC {\cyrb }\IeC {\cyro }\IeC {\cyrr } \IeC {\cyrch }\IeC {\cyri }\IeC {\cyrs }\IeC {\cyrl }\IeC {\cyra } \IeC {\cyrt }\IeC {\cyre }\IeC {\cyrm }}{21}{subsection.4.2.1}\protected@file@percent }
\newlabel{sub:num_topics}{{4.2.1}{21}{Подбор числа тем}{subsection.4.2.1}{}}
\@writefile{lot}{\contentsline {table}{\numberline {4.2}{\ignorespaces \relax }}{22}{table.caption.82}\protected@file@percent }
\newlabel{tab:num_topic}{{4.2}{22}{\relax }{table.caption.82}{}}
\@writefile{toc}{\contentsline {subsection}{\numberline {4.2.2}\IeC {\CYRP }\IeC {\cyro }\IeC {\cyrd }\IeC {\cyrb }\IeC {\cyro }\IeC {\cyrr } \IeC {\cyrv }\IeC {\cyre }\IeC {\cyrs }\IeC {\cyro }\IeC {\cyrv } \IeC {\cyrm }\IeC {\cyro }\IeC {\cyrd }\IeC {\cyra }\IeC {\cyrl }\IeC {\cyrsftsn }\IeC {\cyrn }\IeC {\cyro }\IeC {\cyrs }\IeC {\cyrt }\IeC {\cyre }\IeC {\cyrishrt }}{22}{subsection.4.2.2}\protected@file@percent }
\@writefile{lof}{\contentsline {figure}{\numberline {4.2}{\ignorespaces \IeC {\CYRI }\IeC {\cyrz }\IeC {\cyrm }\IeC {\cyre }\IeC {\cyrn }\IeC {\cyre }\IeC {\cyrn }\IeC {\cyri }\IeC {\cyre } \IeC {\cyrm }\IeC {\cyre }\IeC {\cyrt }\IeC {\cyrr }\IeC {\cyri }\IeC {\cyrk }\IeC {\cyri } AUC \IeC {\cyrv } \IeC {\cyrh }\IeC {\cyro }\IeC {\cyrd }\IeC {\cyre } \IeC {\cyri }\IeC {\cyrt }\IeC {\cyre }\IeC {\cyrr }\IeC {\cyra }\IeC {\cyrc }\IeC {\cyri }\IeC {\cyri } \IeC {\cyra }\IeC {\cyrl }\IeC {\cyrg }\IeC {\cyro }\IeC {\cyrr }\IeC {\cyri }\IeC {\cyrt }\IeC {\cyrm }\IeC {\cyra } \IeC {\cyrp }\IeC {\cyro } \IeC {\cyrp }\IeC {\cyro }\IeC {\cyrd }\IeC {\cyrb }\IeC {\cyro }\IeC {\cyrr }\IeC {\cyru } \IeC {\cyrv }\IeC {\cyre }\IeC {\cyrs }\IeC {\cyro }\IeC {\cyrv } \IeC {\cyrm }\IeC {\cyro }\IeC {\cyrd }\IeC {\cyra }\IeC {\cyrl }\IeC {\cyrsftsn }\IeC {\cyrn }\IeC {\cyro }\IeC {\cyrs }\IeC {\cyrt }\IeC {\cyre }\IeC {\cyrishrt }.\relax }}{22}{figure.caption.84}\protected@file@percent }
\newlabel{fig:lam_res}{{4.2}{22}{Изменение метрики AUC в ходе итерации алгоритма по подбору весов модальностей.\relax }{figure.caption.84}{}}
\@writefile{toc}{\contentsline {subparagraph}{\nonumberline \IeC {\CYRSH }\IeC {\cyra }\IeC {\cyrg } 1.}{23}{section*.86}\protected@file@percent }
\@writefile{toc}{\contentsline {subparagraph}{\nonumberline \IeC {\CYRSH }\IeC {\cyra }\IeC {\cyrg } 2.}{23}{section*.87}\protected@file@percent }
\@writefile{toc}{\contentsline {subparagraph}{\nonumberline \IeC {\CYRSH }\IeC {\cyra }\IeC {\cyrg } k.}{23}{section*.88}\protected@file@percent }
\@writefile{toc}{\contentsline {subsubsection}{\nonumberline \IeC {\CYRT }\IeC {\cyre }\IeC {\cyrm }\IeC {\cyra }\IeC {\cyrt }\IeC {\cyri }\IeC {\cyrch }\IeC {\cyre }\IeC {\cyrs }\IeC {\cyrk }\IeC {\cyra }\IeC {\cyrya } \IeC {\cyrm }\IeC {\cyro }\IeC {\cyrd }\IeC {\cyre }\IeC {\cyrl }\IeC {\cyrsftsn }}{23}{section*.92}\protected@file@percent }
\@writefile{lot}{\contentsline {table}{\numberline {4.3}{\ignorespaces \IeC {\CYRV }\IeC {\cyre }\IeC {\cyrs }\IeC {\cyra } TM \IeC {\cyrm }\IeC {\cyro }\IeC {\cyrd }\IeC {\cyre }\IeC {\cyrl }\IeC {\cyri }.\relax }}{24}{table.caption.93}\protected@file@percent }
\newlabel{tab:tm_weights}{{4.3}{24}{Веса TM модели.\relax }{table.caption.93}{}}
\@writefile{toc}{\contentsline {subsubsection}{\nonumberline WNTM \IeC {\cyrm }\IeC {\cyro }\IeC {\cyrd }\IeC {\cyre }\IeC {\cyrl }\IeC {\cyrsftsn }}{24}{section*.95}\protected@file@percent }
\@writefile{lot}{\contentsline {table}{\numberline {4.4}{\ignorespaces \IeC {\CYRV }\IeC {\cyre }\IeC {\cyrs }\IeC {\cyra } WNTM \IeC {\cyrm }\IeC {\cyro }\IeC {\cyrd }\IeC {\cyre }\IeC {\cyrl }\IeC {\cyri }.\relax }}{24}{table.caption.96}\protected@file@percent }
\newlabel{tab:wntm_weights}{{4.4}{24}{Веса WNTM модели.\relax }{table.caption.96}{}}
\@writefile{toc}{\contentsline {subsection}{\numberline {4.2.3}\IeC {\CYRP }\IeC {\cyro }\IeC {\cyrd }\IeC {\cyrb }\IeC {\cyro }\IeC {\cyrr } \IeC {\cyrv }\IeC {\cyre }\IeC {\cyrs }\IeC {\cyro }\IeC {\cyrv } \IeC {\cyrr }\IeC {\cyre }\IeC {\cyrg }\IeC {\cyru }\IeC {\cyrl }\IeC {\cyrya }\IeC {\cyrr }\IeC {\cyri }\IeC {\cyrz }\IeC {\cyra }\IeC {\cyrt }\IeC {\cyro }\IeC {\cyrr }\IeC {\cyro }\IeC {\cyrv }}{24}{subsection.4.2.3}\protected@file@percent }
\@writefile{toc}{\contentsline {subparagraph}{\nonumberline \IeC {\CYRSH }\IeC {\cyra }\IeC {\cyrg } 1.}{25}{section*.101}\protected@file@percent }
\@writefile{toc}{\contentsline {subparagraph}{\nonumberline \IeC {\CYRSH }\IeC {\cyra }\IeC {\cyrg } k.}{25}{section*.102}\protected@file@percent }
\@writefile{toc}{\contentsline {subsubsection}{\nonumberline TM \IeC {\cyrm }\IeC {\cyro }\IeC {\cyrd }\IeC {\cyre }\IeC {\cyrl }\IeC {\cyrsftsn }}{25}{section*.103}\protected@file@percent }
\@writefile{toc}{\contentsline {subsubsection}{\nonumberline WNTM \IeC {\cyrm }\IeC {\cyro }\IeC {\cyrd }\IeC {\cyre }\IeC {\cyrl }\IeC {\cyrsftsn }}{25}{section*.104}\protected@file@percent }
\@writefile{toc}{\contentsline {section}{\numberline {4.3}\IeC {\CYRA }\IeC {\cyrn }\IeC {\cyra }\IeC {\cyrl }\IeC {\cyri }\IeC {\cyrz } \IeC {\cyru }\IeC {\cyrs }\IeC {\cyrt }\IeC {\cyro }\IeC {\cyrishrt }\IeC {\cyrch }\IeC {\cyri }\IeC {\cyrv }\IeC {\cyro }\IeC {\cyrs }\IeC {\cyrt }\IeC {\cyri } \IeC {\cyrm }\IeC {\cyro }\IeC {\cyrd }\IeC {\cyre }\IeC {\cyrl }\IeC {\cyre }\IeC {\cyrishrt }}{26}{section.4.3}\protected@file@percent }
\newlabel{sec:exp_stab}{{4.3}{26}{Анализ устойчивости моделей}{section.4.3}{}}
\@writefile{toc}{\contentsline {subsubsection}{\nonumberline \IeC {\CYRA }\IeC {\cyrl }\IeC {\cyrg }\IeC {\cyro }\IeC {\cyrr }\IeC {\cyri }\IeC {\cyrt }\IeC {\cyrm } \IeC {\cyrp }\IeC {\cyrr }\IeC {\cyro }\IeC {\cyrv }\IeC {\cyre }\IeC {\cyrd }\IeC {\cyre }\IeC {\cyrn }\IeC {\cyri }\IeC {\cyrya } \IeC {\cyrerev }\IeC {\cyrk }\IeC {\cyrs }\IeC {\cyrp }\IeC {\cyre }\IeC {\cyrr }\IeC {\cyri }\IeC {\cyrm }\IeC {\cyre }\IeC {\cyrn }\IeC {\cyrt }\IeC {\cyra } \IeC {\cyrd }\IeC {\cyrl }\IeC {\cyrya } \IeC {\cyra }\IeC {\cyrn }\IeC {\cyra }\IeC {\cyrl }\IeC {\cyri }\IeC {\cyrz }\IeC {\cyra } \IeC {\cyru }\IeC {\cyrs }\IeC {\cyrt }\IeC {\cyro }\IeC {\cyrishrt }\IeC {\cyrch }\IeC {\cyri }\IeC {\cyrv }\IeC {\cyro }\IeC {\cyrs }\IeC {\cyrt }\IeC {\cyri } \IeC {\cyrm }\IeC {\cyro }\IeC {\cyrd }\IeC {\cyre }\IeC {\cyrl }\IeC {\cyri }:}{26}{section*.107}\protected@file@percent }
\newlabel{fig:sub1}{{4.3a}{27}{TM.\relax }{figure.caption.108}{}}
\newlabel{sub@fig:sub1}{{a}{27}{TM.\relax }{figure.caption.108}{}}
\newlabel{fig:sub2}{{4.3b}{27}{WNTM.\relax }{figure.caption.108}{}}
\newlabel{sub@fig:sub2}{{b}{27}{WNTM.\relax }{figure.caption.108}{}}
\@writefile{lof}{\contentsline {figure}{\numberline {4.3}{\ignorespaces \IeC {\CYRZ }\IeC {\cyrd }\IeC {\cyre }\IeC {\cyrs }\IeC {\cyrsftsn } \IeC {\cyrk }\IeC {\cyro }\IeC {\cyrm }\IeC {\cyrp }\IeC {\cyra }\IeC {\cyrn }\IeC {\cyri }\IeC {\cyrya }\IeC {\cyrm } \IeC {\cyrs }\IeC {\cyro }\IeC {\cyro }\IeC {\cyrt }\IeC {\cyrv }\IeC {\cyre }\IeC {\cyrt }\IeC {\cyrs }\IeC {\cyrt }\IeC {\cyrv }\IeC {\cyru }\IeC {\cyryu }\IeC {\cyrt } \IeC {\cyrt }\IeC {\cyro }\IeC {\cyrch }\IeC {\cyrk }\IeC {\cyri }, \IeC {\cyrs } \IeC {\cyrk }\IeC {\cyro }\IeC {\cyro }\IeC {\cyrr }\IeC {\cyrd }\IeC {\cyri }\IeC {\cyrn }\IeC {\cyra }\IeC {\cyrt }\IeC {\cyra }\IeC {\cyrm }\IeC {\cyri }: \IeC {\cyrp }\IeC {\cyro } \IeC {\cyro }\IeC {\cyrd }\IeC {\cyrn }\IeC {\cyro }\IeC {\cyrishrt } \IeC {\cyro }\IeC {\cyrs }\IeC {\cyri } - \IeC {\cyrr }\IeC {\cyra }\IeC {\cyrs }\IeC {\cyrs }\IeC {\cyrt }\IeC {\cyro }\IeC {\cyrya }\IeC {\cyrn }\IeC {\cyri }\IeC {\cyrya } \IeC {\cyrm }\IeC {\cyre }\IeC {\cyrzh }\IeC {\cyrd }\IeC {\cyru } \IeC {\cyrd }\IeC {\cyrv }\IeC {\cyru }\IeC {\cyrm }\IeC {\cyrya } \IeC {\cyrch }\IeC {\cyra }\IeC {\cyrs }\IeC {\cyrt }\IeC {\cyrya }\IeC {\cyrm }\IeC {\cyri } \IeC {\cyrk }\IeC {\cyro }\IeC {\cyrm }\IeC {\cyrp }\IeC {\cyra }\IeC {\cyrn }\IeC {\cyri }\IeC {\cyrishrt }, \IeC {\cyra } \IeC {\cyrp }\IeC {\cyro } \IeC {\cyrd }\IeC {\cyrr }\IeC {\cyru }\IeC {\cyrg }\IeC {\cyro }\IeC {\cyrishrt } - \IeC {\cyrk }\IeC {\cyro }\IeC {\cyrl }\IeC {\cyri }\IeC {\cyrch }\IeC {\cyre }\IeC {\cyrs }\IeC {\cyrt }\IeC {\cyrv }\IeC {\cyro } \IeC {\cyrt }\IeC {\cyrr }\IeC {\cyra }\IeC {\cyrn }\IeC {\cyrz }\IeC {\cyra }\IeC {\cyrk }\IeC {\cyrc }\IeC {\cyri }\IeC {\cyrishrt } \IeC {\cyrs } \IeC {\cyrk }\IeC {\cyro }\IeC {\cyrm }\IeC {\cyrp }\IeC {\cyra }\IeC {\cyrn }\IeC {\cyri }\IeC {\cyre }\IeC {\cyrishrt } \IeC {\cyrv } \IeC {\cyrd }\IeC {\cyra }\IeC {\cyrn }\IeC {\cyrn }\IeC {\cyrery }\IeC {\cyrh }. \IeC {\CYRV }\IeC {\cyrs }\IeC {\cyre }\IeC {\cyrg }\IeC {\cyro } \IeC {\cyrz }\IeC {\cyrd }\IeC {\cyre }\IeC {\cyrs }\IeC {\cyrsftsn } \IeC {\cyro }\IeC {\cyrt }\IeC {\cyro }\IeC {\cyrb }\IeC {\cyrr }\IeC {\cyra }\IeC {\cyrzh }\IeC {\cyre }\IeC {\cyrn }\IeC {\cyro } 1000 \IeC {\cyrt }\IeC {\cyro }\IeC {\cyrch }\IeC {\cyre }\IeC {\cyrk }. \IeC {\CYRD }\IeC {\cyrl }\IeC {\cyrya } \IeC {\cyro }\IeC {\cyrb }\IeC {\cyre }\IeC {\cyri }\IeC {\cyrh } \IeC {\cyrm }\IeC {\cyro }\IeC {\cyrd }\IeC {\cyre }\IeC {\cyrl }\IeC {\cyre }\IeC {\cyrishrt } \IeC {\cyrt }\IeC {\cyro }\IeC {\cyrch }\IeC {\cyrk }\IeC {\cyri } \IeC {\cyrs }\IeC {\cyro }\IeC {\cyro }\IeC {\cyrt }\IeC {\cyrv }\IeC {\cyre }\IeC {\cyrt }\IeC {\cyrs }\IeC {\cyrt }\IeC {\cyrv }\IeC {\cyru }\IeC {\cyryu }\IeC {\cyrt } \IeC {\cyro }\IeC {\cyrd }\IeC {\cyrn }\IeC {\cyro }\IeC {\cyrm }\IeC {\cyru } \IeC {\cyri } \IeC {\cyrt }\IeC {\cyro }\IeC {\cyrm }\IeC {\cyru } \IeC {\cyrzh }\IeC {\cyre } \IeC {\cyrn }\IeC {\cyra }\IeC {\cyrb }\IeC {\cyro }\IeC {\cyrr }\IeC {\cyru } \IeC {\cyrk }\IeC {\cyro }\IeC {\cyrm }\IeC {\cyrp }\IeC {\cyra }\IeC {\cyrn }\IeC {\cyri }\IeC {\cyrishrt } \IeC {\cyrs } \IeC {\cyro }\IeC {\cyrd }\IeC {\cyri }\IeC {\cyrn }\IeC {\cyra }\IeC {\cyrk }\IeC {\cyro }\IeC {\cyrv }\IeC {\cyrery }\IeC {\cyrm } \IeC {\cyri }\IeC {\cyrh } \IeC {\cyrr }\IeC {\cyra }\IeC {\cyrz }\IeC {\cyrb }\IeC {\cyri }\IeC {\cyre }\IeC {\cyrn }\IeC {\cyri }\IeC {\cyre }\IeC {\cyrm } \IeC {\cyrn }\IeC {\cyra } \IeC {\cyrp }\IeC {\cyra }\IeC {\cyrr }\IeC {\cyrery } \IeC {\cyrp }\IeC {\cyrs }\IeC {\cyre }\IeC {\cyrv }\IeC {\cyrd }\IeC {\cyro }\IeC {\cyrk }\IeC {\cyro }\IeC {\cyrm }\IeC {\cyrp }\IeC {\cyra }\IeC {\cyrn }\IeC {\cyri }\IeC {\cyrishrt }.\relax }}{27}{figure.caption.108}\protected@file@percent }
\newlabel{fig:stab_model}{{4.3}{27}{Здесь компаниям соответствуют точки, с координатами: по одной оси - расстояния между двумя частями компаний, а по другой - количество транзакций с компанией в данных. Всего здесь отображено 1000 точек. Для обеих моделей точки соответствуют одному и тому же набору компаний с одинаковым их разбиением на пары псевдокомпаний.\relax }{figure.caption.108}{}}
\@writefile{toc}{\contentsline {subsubsection}{\nonumberline \IeC {\CYRA }\IeC {\cyrl }\IeC {\cyrg }\IeC {\cyro }\IeC {\cyrr }\IeC {\cyri }\IeC {\cyrt }\IeC {\cyrm } \IeC {\cyrp }\IeC {\cyrr }\IeC {\cyro }\IeC {\cyrv }\IeC {\cyre }\IeC {\cyrd }\IeC {\cyre }\IeC {\cyrn }\IeC {\cyri }\IeC {\cyrya } \IeC {\cyrerev }\IeC {\cyrk }\IeC {\cyrs }\IeC {\cyrp }\IeC {\cyre }\IeC {\cyrr }\IeC {\cyri }\IeC {\cyrm }\IeC {\cyre }\IeC {\cyrn }\IeC {\cyrt }\IeC {\cyra } \IeC {\cyrd }\IeC {\cyrl }\IeC {\cyrya } \IeC {\cyra }\IeC {\cyrn }\IeC {\cyra }\IeC {\cyrl }\IeC {\cyri }\IeC {\cyrz }\IeC {\cyra } \IeC {\cyrk }\IeC {\cyro }\IeC {\cyrr }\IeC {\cyrr }\IeC {\cyre }\IeC {\cyrl }\IeC {\cyrya }\IeC {\cyrc }\IeC {\cyri }\IeC {\cyri } \IeC {\cyru }\IeC {\cyrs }\IeC {\cyrt }\IeC {\cyro }\IeC {\cyrishrt }\IeC {\cyrch }\IeC {\cyri }\IeC {\cyrv }\IeC {\cyro }\IeC {\cyrs }\IeC {\cyrt }\IeC {\cyri } \IeC {\cyri } \IeC {\cyrk }\IeC {\cyra }\IeC {\cyrch }\IeC {\cyre }\IeC {\cyrs }\IeC {\cyrt }\IeC {\cyrv }\IeC {\cyra } \IeC {\cyrm }\IeC {\cyro }\IeC {\cyrd }\IeC {\cyre }\IeC {\cyrl }\IeC {\cyri }:}{27}{section*.110}\protected@file@percent }
\newlabel{fig:dist_auc}{{4.4a}{28}{Зависимость среднего расстояния в парах псевдокомпаний от AUC.\relax }{figure.caption.112}{}}
\newlabel{sub@fig:dist_auc}{{a}{28}{Зависимость среднего расстояния в парах псевдокомпаний от AUC.\relax }{figure.caption.112}{}}
\newlabel{fig:place_auc}{{4.4b}{28}{Зависимость среднего порядка одной псевдокомпании в списке второй от AUC.\relax }{figure.caption.112}{}}
\newlabel{sub@fig:place_auc}{{b}{28}{Зависимость среднего порядка одной псевдокомпании в списке второй от AUC.\relax }{figure.caption.112}{}}
\@writefile{lof}{\contentsline {figure}{\numberline {4.4}{\ignorespaces \IeC {\CYRI }\IeC {\cyrs }\IeC {\cyrs }\IeC {\cyrl }\IeC {\cyre }\IeC {\cyrd }\IeC {\cyro }\IeC {\cyrv }\IeC {\cyra }\IeC {\cyrn }\IeC {\cyri }\IeC {\cyre } \IeC {\cyrk }\IeC {\cyro }\IeC {\cyrr }\IeC {\cyrr }\IeC {\cyre }\IeC {\cyrl }\IeC {\cyrya }\IeC {\cyrc }\IeC {\cyri }\IeC {\cyri } \IeC {\cyru }\IeC {\cyrs }\IeC {\cyrt }\IeC {\cyro }\IeC {\cyrishrt }\IeC {\cyrch }\IeC {\cyri }\IeC {\cyrv }\IeC {\cyro }\IeC {\cyrs }\IeC {\cyrt }\IeC {\cyri } \IeC {\cyri } AUC.\relax }}{28}{figure.caption.112}\protected@file@percent }
\newlabel{fig:stab_auc}{{4.4}{28}{Исследование корреляции устойчивости и AUC.\relax }{figure.caption.112}{}}
\@writefile{lot}{\contentsline {table}{\numberline {4.5}{\ignorespaces \relax }}{28}{table.caption.113}\protected@file@percent }
\newlabel{wrap-tab:1}{{4.5}{28}{\relax }{table.caption.113}{}}
\@writefile{lot}{\contentsline {table}{\numberline {4.6}{\ignorespaces \relax }}{28}{table.caption.117}\protected@file@percent }
\newlabel{wrap-tab:2}{{4.6}{28}{\relax }{table.caption.117}{}}
\@setckpt{Chapters/03_Experiments}{
\setcounter{page}{30}
\setcounter{equation}{0}
\setcounter{enumi}{4}
\setcounter{enumii}{0}
\setcounter{enumiii}{0}
\setcounter{enumiv}{0}
\setcounter{footnote}{0}
\setcounter{mpfootnote}{0}
\setcounter{part}{0}
\setcounter{chapter}{4}
\setcounter{section}{3}
\setcounter{subsection}{0}
\setcounter{subsubsection}{0}
\setcounter{paragraph}{0}
\setcounter{subparagraph}{0}
\setcounter{figure}{4}
\setcounter{table}{6}
\setcounter{Item}{33}
\setcounter{Hfootnote}{0}
\setcounter{bookmark@seq@number}{0}
\setcounter{caption@flags}{0}
\setcounter{ContinuedFloat}{0}
\setcounter{subfigure}{2}
\setcounter{subtable}{0}
\setcounter{NAT@ctr}{0}
\setcounter{parentequation}{0}
\setcounter{float@type}{8}
\setcounter{FancyVerbLine}{0}
\setcounter{LT@tables}{0}
\setcounter{LT@chunks}{0}
\setcounter{lstnumber}{1}
\setcounter{section@level}{4}
\setcounter{lstlisting}{0}
}
