init_modality: @buyers==============================
---------  @sellers  ---------
==============================
   iter  |  lambda  |  score  
------------------------------
     1   |  0.0000  |  0.5313  
------------------------------
     2   |  0.5000  |  0.5209  
------------------------------
     3   |  1.0000  |  0.5877  
------------------------------
     4   |  0.6180  |  0.5677  
------------------------------
     5   |  0.8541  |  0.5740  
------------------------------
     6   |  0.9443  |  0.5941  
------------------------------
     7   |  0.9656  |  0.5914  
------------------------------
     8   |  0.9524  |  0.5964  
------------------------------
   best  |  0.9524  |  0.5964   
==============================
---------  @buywords  ---------
==============================
   iter  |  lambda  |  score  
------------------------------
     1   |  0.0000  |  0.5964  
------------------------------
     2   |  0.4585  |  0.7668  
------------------------------
     3   |  0.9170  |  0.7589  
------------------------------
     4   |  0.6336  |  0.7516  
------------------------------
     5   |  0.5254  |  0.7609  
------------------------------
     6   |  0.4841  |  0.7639  
------------------------------
     7   |  0.4683  |  0.7657  
------------------------------
     8   |  0.4622  |  0.7673  
------------------------------
   best  |  0.4622  |  0.7673   
==============================
--------  @sellwords  --------
==============================
   iter  |  lambda  |  score  
------------------------------
     1   |  0.0000  |  0.7673  
------------------------------
     2   |  0.4204  |  0.7135  
------------------------------
     3   |  0.8409  |  0.6419  
------------------------------
     4   |  0.1606  |  0.7451  
------------------------------
     5   |  0.0613  |  0.7574  
------------------------------
     6   |  0.0234  |  0.7579  
------------------------------
     7   |  0.0089  |  0.7728  
------------------------------
     8   |  0.0055  |  0.7688  
------------------------------
   best  |  0.0089  |  0.7728   
==============================
--------  @all_okv_0  --------
==============================
   iter  |  lambda  |  score  
------------------------------
     1   |  0.0000  |  0.7728  
------------------------------
     2   |  0.3856  |  0.7629  
------------------------------
     3   |  0.7711  |  0.7727  
------------------------------
     4   |  0.2945  |  0.7679  
------------------------------
     5   |  0.1125  |  0.7710  
------------------------------
     6   |  0.0430  |  0.7729  
------------------------------
     7   |  0.0266  |  0.7712  
------------------------------
     8   |  0.0367  |  0.7715  
------------------------------
   best  |  0.0430  |  0.7729   
==============================
--------  @all_okv_1  --------
==============================
   iter  |  lambda  |  score  
------------------------------
     1   |  0.0000  |  0.7729  
------------------------------
     2   |  0.3536  |  0.7623  
------------------------------
     3   |  0.7071  |  0.7631  
------------------------------
     4   |  0.2701  |  0.7659  
------------------------------
     5   |  0.1032  |  0.7691  
------------------------------
     6   |  0.0394  |  0.7700  
------------------------------
     7   |  0.0151  |  0.7706  
------------------------------
     8   |  0.0057  |  0.7715  
------------------------------
   best  |  0.0000  |  0.7729   
==============================
--------  @all_okv_2  --------
==============================
   iter  |  lambda  |  score  
------------------------------
     1   |  0.0000  |  0.7729  
------------------------------
     2   |  0.3242  |  0.7738  
------------------------------
     3   |  0.6484  |  0.7874  
------------------------------
     4   |  0.5246  |  0.7859  
------------------------------
     5   |  0.6011  |  0.7882  
------------------------------
     6   |  0.6192  |  0.7877  
------------------------------
     7   |  0.6080  |  0.7890  
------------------------------
     8   |  0.6054  |  0.7887  
------------------------------
   best  |  0.6080  |  0.7890   
==============================
----------  @okv_0  ----------
==============================
   iter  |  lambda  |  score  
------------------------------
     1   |  0.0000  |  0.7890  
------------------------------
     2   |  0.2973  |  0.7879  
------------------------------
     3   |  0.5946  |  0.7888  
------------------------------
     4   |  0.2271  |  0.7879  
------------------------------
     5   |  0.0868  |  0.7884  
------------------------------
     6   |  0.0331  |  0.7895  
------------------------------
     7   |  0.0205  |  0.7895  
------------------------------
     8   |  0.0253  |  0.7895  
------------------------------
   best  |  0.0331  |  0.7895   
==============================
----------  @okv_1  ----------
==============================
   iter  |  lambda  |  score  
------------------------------
     1   |  0.0000  |  0.7895  
------------------------------
     2   |  0.2726  |  0.7887  
------------------------------
     3   |  0.5453  |  0.7876  
------------------------------
     4   |  0.1041  |  0.7888  
------------------------------
     5   |  0.0398  |  0.7894  
------------------------------
     6   |  0.0152  |  0.7895  
------------------------------
     7   |  0.0094  |  0.7895  
------------------------------
     8   |  0.0058  |  0.7895  
------------------------------
   best  |  0.0000  |  0.7895   
==============================
----------  @okv_2  ----------
==============================
   iter  |  lambda  |  score  
------------------------------
     1   |  0.0000  |  0.7895  
------------------------------
     2   |  0.2500  |  0.7868  
------------------------------
     3   |  0.5000  |  0.7866  
------------------------------
     4   |  0.0955  |  0.7889  
------------------------------
     5   |  0.0365  |  0.7882  
------------------------------
     6   |  0.0139  |  0.7894  
------------------------------
     7   |  0.0053  |  0.7895  
------------------------------
     8   |  0.0033  |  0.7895  
------------------------------
   best  |  0.0000  |  0.7895   
==============================
--------  @sellokv_0  --------
==============================
   iter  |  lambda  |  score  
------------------------------
     1   |  0.0000  |  0.7895  
------------------------------
     2   |  0.2293  |  0.6868  
------------------------------
     3   |  0.4585  |  0.6685  
------------------------------
     4   |  0.0876  |  0.7158  
------------------------------
     5   |  0.0334  |  0.7866  
------------------------------
     6   |  0.0128  |  0.8088  
------------------------------
     7   |  0.0079  |  0.8260  
------------------------------
     8   |  0.0098  |  0.8109  
------------------------------
   best  |  0.0079  |  0.8260   
==============================
--------  @sellokv_1  --------
==============================
   iter  |  lambda  |  score  
------------------------------
     1   |  0.0000  |  0.8260  
------------------------------
     2   |  0.2102  |  0.6916  
------------------------------
     3   |  0.4204  |  0.6636  
------------------------------
     4   |  0.0803  |  0.7413  
------------------------------
     5   |  0.0307  |  0.7708  
------------------------------
     6   |  0.0117  |  0.7742  
------------------------------
     7   |  0.0045  |  0.7608  
------------------------------
     8   |  0.0017  |  0.7982  
------------------------------
   best  |  0.0000  |  0.8260   
==============================
--------  @sellokv_2  --------
==============================
   iter  |  lambda  |  score  
------------------------------
     1   |  0.0000  |  0.8260  
------------------------------
     2   |  0.1928  |  0.7348  
------------------------------
     3   |  0.3856  |  0.7238  
------------------------------
     4   |  0.0736  |  0.7739  
------------------------------
     5   |  0.0281  |  0.7503  
------------------------------
     6   |  0.0107  |  0.7938  
------------------------------
     7   |  0.0041  |  0.8030  
------------------------------
     8   |  0.0016  |  0.8074  
------------------------------
   best  |  0.0000  |  0.8260   
==============================
---------  @buyokv_0  ---------
==============================
   iter  |  lambda  |  score  
------------------------------
     1   |  0.0000  |  0.8260  
------------------------------
     2   |  0.1768  |  0.7290  
------------------------------
     3   |  0.3536  |  0.6933  
------------------------------
     4   |  0.0675  |  0.7574  
------------------------------
     5   |  0.0258  |  0.7792  
------------------------------
     6   |  0.0099  |  0.7819  
------------------------------
     7   |  0.0038  |  0.7800  
------------------------------
     8   |  0.0014  |  0.8051  
------------------------------
   best  |  0.0000  |  0.8260   
==============================
---------  @buyokv_1  ---------
==============================
   iter  |  lambda  |  score  
------------------------------
     1   |  0.0000  |  0.8260  
------------------------------
     2   |  0.1621  |  0.7040  
------------------------------
     3   |  0.3242  |  0.6815  
------------------------------
     4   |  0.0619  |  0.7360  
------------------------------
     5   |  0.0237  |  0.7313  
------------------------------
     6   |  0.0090  |  0.7779  
------------------------------
     7   |  0.0035  |  0.7876  
------------------------------
     8   |  0.0013  |  0.7928  
------------------------------
   best  |  0.0000  |  0.8260   
==============================
---------  @buyokv_2  ---------
==============================
   iter  |  lambda  |  score  
------------------------------
     1   |  0.0000  |  0.8260  
------------------------------
     2   |  0.1487  |  0.7241  
------------------------------
     3   |  0.2973  |  0.7205  
------------------------------
     4   |  0.0568  |  0.7628  
------------------------------
     5   |  0.0217  |  0.7918  
------------------------------
     6   |  0.0083  |  0.8038  
------------------------------
     7   |  0.0032  |  0.8071  
------------------------------
     8   |  0.0012  |  0.8180  
------------------------------
   best  |  0.0000  |  0.8260   
==============================