init_modality: @buyers==============================
---------  @buyokv_0  ---------
==============================
   iter  |  lambda  |  score  
------------------------------
     1   |  0.0000  |  0.5726  
------------------------------
     2   |  0.5000  |  0.6708  
------------------------------
     3   |  1.0000  |  0.6583  
------------------------------
     4   |  0.6910  |  0.6635  
------------------------------
     5   |  0.5729  |  0.6677  
------------------------------
     6   |  0.5279  |  0.6698  
------------------------------
     7   |  0.5106  |  0.6704  
------------------------------
     8   |  0.5041  |  0.6707  
------------------------------
   best  |  0.5000  |  0.6708   
==============================
---------  @buywords  ---------
==============================
   iter  |  lambda  |  score  
------------------------------
     1   |  0.0000  |  0.6708  
------------------------------
     2   |  0.4585  |  0.7081  
------------------------------
     3   |  0.9170  |  0.7429  
------------------------------
     4   |  0.7419  |  0.7370  
------------------------------
     5   |  0.8501  |  0.7464  
------------------------------
     6   |  0.8757  |  0.7470  
------------------------------
     7   |  0.8659  |  0.7478  
------------------------------
     8   |  0.8696  |  0.7495  
------------------------------
   best  |  0.8696  |  0.7495   
==============================
---------  @buyokv_1  ---------
==============================
   iter  |  lambda  |  score  
------------------------------
     1   |  0.0000  |  0.7495  
------------------------------
     2   |  0.4204  |  0.7110  
------------------------------
     3   |  0.8409  |  0.6644  
------------------------------
     4   |  0.1606  |  0.7454  
------------------------------
     5   |  0.0613  |  0.7344  
------------------------------
     6   |  0.0234  |  0.7469  
------------------------------
     7   |  0.0089  |  0.7453  
------------------------------
     8   |  0.0034  |  0.7499  
------------------------------
   best  |  0.0034  |  0.7499   
==============================
---------  @buyokv_2  ---------
==============================
   iter  |  lambda  |  score  
------------------------------
     1   |  0.0000  |  0.7499  
------------------------------
     2   |  0.3856  |  0.7048  
------------------------------
     3   |  0.7711  |  0.7063  
------------------------------
     4   |  0.2945  |  0.7181  
------------------------------
     5   |  0.1125  |  0.7583  
------------------------------
     6   |  0.0695  |  0.7572  
------------------------------
     7   |  0.0961  |  0.7566  
------------------------------
     8   |  0.1062  |  0.7561  
------------------------------
   best  |  0.1125  |  0.7583   
==============================
---------  @sellers  ---------
==============================
   iter  |  lambda  |  score  
------------------------------
     1   |  0.0000  |  0.7583  
------------------------------
     2   |  0.3536  |  0.7579  
------------------------------
     3   |  0.7071  |  0.7540  
------------------------------
     4   |  0.1350  |  0.7539  
------------------------------
     5   |  0.0516  |  0.7582  
------------------------------
     6   |  0.0197  |  0.7581  
------------------------------
     7   |  0.0075  |  0.7580  
------------------------------
     8   |  0.0029  |  0.7583  
------------------------------
   best  |  0.0000  |  0.7583   
==============================
--------  @sellwords  --------
==============================
   iter  |  lambda  |  score  
------------------------------
     1   |  0.0000  |  0.7583  
------------------------------
     2   |  0.3242  |  0.7530  
------------------------------
     3   |  0.6484  |  0.7675  
------------------------------
     4   |  0.4007  |  0.7709  
------------------------------
     5   |  0.4953  |  0.7602  
------------------------------
     6   |  0.4369  |  0.7666  
------------------------------
     7   |  0.4145  |  0.7705  
------------------------------
     8   |  0.4060  |  0.7710  
------------------------------
   best  |  0.4060  |  0.7710   
==============================
--------  @sellokv_2  --------
==============================
   iter  |  lambda  |  score  
------------------------------
     1   |  0.0000  |  0.7710  
------------------------------
     2   |  0.2973  |  0.7649  
------------------------------
     3   |  0.5946  |  0.7061  
------------------------------
     4   |  0.1136  |  0.7753  
------------------------------
     5   |  0.0702  |  0.7711  
------------------------------
     6   |  0.0970  |  0.7838  
------------------------------
     7   |  0.1033  |  0.7826  
------------------------------
     8   |  0.0994  |  0.7832  
------------------------------
   best  |  0.0970  |  0.7838   
==============================
--------  @sellokv_0  --------
==============================
   iter  |  lambda  |  score  
------------------------------
     1   |  0.0000  |  0.7838  
------------------------------
     2   |  0.2726  |  0.7673  
------------------------------
     3   |  0.5453  |  0.7271  
------------------------------
     4   |  0.1041  |  0.7650  
------------------------------
     5   |  0.0398  |  0.7666  
------------------------------
     6   |  0.0152  |  0.7882  
------------------------------
     7   |  0.0094  |  0.7894  
------------------------------
     8   |  0.0116  |  0.7873  
------------------------------
   best  |  0.0094  |  0.7894   
==============================
--------  @sellokv_1  --------
==============================
   iter  |  lambda  |  score  
------------------------------
     1   |  0.0000  |  0.7894  
------------------------------
     2   |  0.2500  |  0.7846  
------------------------------
     3   |  0.5000  |  0.7588  
------------------------------
     4   |  0.0955  |  0.7683  
------------------------------
     5   |  0.0365  |  0.7830  
------------------------------
     6   |  0.0139  |  0.7765  
------------------------------
     7   |  0.0053  |  0.7831  
------------------------------
     8   |  0.0020  |  0.7839  
------------------------------
   best  |  0.0000  |  0.7894   
==============================
----------  @okv_0  ----------
==============================
   iter  |  lambda  |  score  
------------------------------
     1   |  0.0000  |  0.7894  
------------------------------
     2   |  0.2293  |  0.7894  
------------------------------
     3   |  0.4585  |  0.7893  
------------------------------
     4   |  0.0876  |  0.7895  
------------------------------
     5   |  0.0541  |  0.7894  
------------------------------
     6   |  0.0748  |  0.7895  
------------------------------
     7   |  0.0797  |  0.7895  
------------------------------
     8   |  0.0827  |  0.7895  
------------------------------
   best  |  0.0876  |  0.7895   
==============================
----------  @okv_1  ----------
==============================
   iter  |  lambda  |  score  
------------------------------
     1   |  0.0000  |  0.7895  
------------------------------
     2   |  0.2102  |  0.7893  
------------------------------
     3   |  0.4204  |  0.7894  
------------------------------
     4   |  0.1606  |  0.7893  
------------------------------
     5   |  0.0613  |  0.7895  
------------------------------
     6   |  0.0379  |  0.7895  
------------------------------
     7   |  0.0234  |  0.7895  
------------------------------
     8   |  0.0145  |  0.7895  
------------------------------
   best  |  0.0000  |  0.7895   
==============================
----------  @okv_2  ----------
==============================
   iter  |  lambda  |  score  
------------------------------
     1   |  0.0000  |  0.7895  
------------------------------
     2   |  0.1928  |  0.7891  
------------------------------
     3   |  0.3856  |  0.7890  
------------------------------
     4   |  0.0736  |  0.7894  
------------------------------
     5   |  0.0281  |  0.7895  
------------------------------
     6   |  0.0174  |  0.7895  
------------------------------
     7   |  0.0107  |  0.7895  
------------------------------
     8   |  0.0066  |  0.7895  
------------------------------
   best  |  0.0000  |  0.7895   
==============================
--------  @all_okv_0  --------
==============================
   iter  |  lambda  |  score  
------------------------------
     1   |  0.0000  |  0.7895  
------------------------------
     2   |  0.1768  |  0.7883  
------------------------------
     3   |  0.3536  |  0.7885  
------------------------------
     4   |  0.1350  |  0.7886  
------------------------------
     5   |  0.0516  |  0.7896  
------------------------------
     6   |  0.0319  |  0.7897  
------------------------------
     7   |  0.0394  |  0.7897  
------------------------------
     8   |  0.0348  |  0.7897  
------------------------------
   best  |  0.0348  |  0.7897   
==============================
--------  @all_okv_1  --------
==============================
   iter  |  lambda  |  score  
------------------------------
     1   |  0.0000  |  0.7897  
------------------------------
     2   |  0.1621  |  0.7879  
------------------------------
     3   |  0.3242  |  0.7874  
------------------------------
     4   |  0.0619  |  0.7893  
------------------------------
     5   |  0.0237  |  0.7896  
------------------------------
     6   |  0.0090  |  0.7897  
------------------------------
     7   |  0.0056  |  0.7897  
------------------------------
     8   |  0.0077  |  0.7898  
------------------------------
   best  |  0.0077  |  0.7898   
==============================
--------  @all_okv_2  --------
==============================
   iter  |  lambda  |  score  
------------------------------
     1   |  0.0000  |  0.7898  
------------------------------
     2   |  0.1487  |  0.7897  
------------------------------
     3   |  0.2973  |  0.7900  
------------------------------
     4   |  0.1837  |  0.7899  
------------------------------
     5   |  0.2539  |  0.7899  
------------------------------
     6   |  0.2807  |  0.7902  
------------------------------
     7   |  0.2871  |  0.7900  
------------------------------
     8   |  0.2832  |  0.7900  
------------------------------
   best  |  0.2807  |  0.7902   
==============================